%YAML 1.1
%TAG !u! tag:unity3d.com,2011:
--- !u!1045 &1
EditorBuildSettings:
  m_ObjectHideFlags: 0
  serializedVersion: 2
  m_Scenes:
  - enabled: 0
    path: Assets/OSVRUnity/Sample/minigame.unity
  - enabled: 0
    path: Assets/OSVRUnity/Sample/Demo/Scenes/OSVRDemo.unity
  - enabled: 0
    path: Assets/OSVRUnity/Sample/Demo/Scenes/OSVRDemo2.unity
  - enabled: 0
    path: Assets/Menu.unity
  - enabled: 0
    path: Assets/Main.unity
  - enabled: 1
    path: Assets/CAVEController.unity
